[gd_resource type="Animation" format=2]

[resource]
length = 0.6
loop = true
step = 0.15
tracks/0/type = "value"
tracks/0/path = NodePath("Sprite2D:frame")
tracks/0/interp = 1
tracks/0/loop_wrap = true
tracks/0/imported = false
tracks/0/enabled = true
tracks/0/keys = {
"times": PackedFloat32Array( 0, 0.15, 0.3, 0.45 ),
"transitions": PackedFloat32Array( 1, 1, 1, 1 ),
"update": 1,
"values": [ 7, 6, 8, 6 ]
}
