[gd_resource type="StyleBoxTexture" load_steps=2 format=3 uid="uid://dyvsqrdeqts3t"]

[ext_resource type="Texture2D" uid="uid://b5k6pr3r5cpki" path="res://Sprites/PanelBorder.png" id="1_7jwda"]

[resource]
content_margin_left = 8.0
content_margin_top = 8.0
content_margin_right = 8.0
content_margin_bottom = 8.0
texture = ExtResource("1_7jwda")
texture_margin_left = 8.0
texture_margin_top = 8.0
texture_margin_right = 8.0
texture_margin_bottom = 8.0
