[gd_resource type="StyleBoxTexture" load_steps=2 format=3 uid="uid://bj4dvccrfv5bu"]

[ext_resource type="Texture2D" uid="uid://cc864w1y847d2" path="res://Sprites/ButtonBorder.png" id="1_pj02i"]

[resource]
content_margin_left = 2.0
content_margin_top = 2.0
content_margin_right = 2.0
content_margin_bottom = 2.0
texture = ExtResource("1_pj02i")
texture_margin_left = 2.0
texture_margin_top = 2.0
texture_margin_right = 2.0
texture_margin_bottom = 2.0
region_rect = Rect2(0, 0, 9, 9)
