[gd_scene load_steps=7 format=3 uid="uid://c3sxsy1jkj4ib"]

[ext_resource type="Script" path="res://Scripts/battle_character.gd" id="1_25h1f"]
[ext_resource type="Texture2D" uid="uid://dg3j4iwoqfs1s" path="res://Sprites/EnemySheet.png" id="1_yk6b4"]

[sub_resource type="Animation" id="1"]
resource_name = "EnemyAttack"
length = 0.4
tracks/0/type = "value"
tracks/0/imported = false
tracks/0/enabled = true
tracks/0/path = NodePath(".:frame")
tracks/0/interp = 0
tracks/0/loop_wrap = true
tracks/0/keys = {
"times": PackedFloat32Array(0, 0.2),
"transitions": PackedFloat32Array(1, 1),
"update": 1,
"values": [7, 6]
}

[sub_resource type="Animation" id="6"]
resource_name = "EnemyDodge"

[sub_resource type="Animation" id="5"]
resource_name = "EnemyHit"

[sub_resource type="AnimationLibrary" id="AnimationLibrary_44ln4"]
_data = {
"Attack": SubResource("1"),
"Dodge": SubResource("6"),
"Hit": SubResource("5")
}

[node name="BattleEnemy" type="Node2D" node_paths=PackedStringArray("character_sprite", "weapon_sprite", "_animation_player")]
script = ExtResource("1_25h1f")
character_alignment = 2
character_sprite = NodePath("EnemySprite")
weapon_sprite = NodePath("EnemyWeapon")
_animation_player = NodePath("EnemySprite/AnimationPlayer")

[node name="EnemyWeapon" type="Sprite2D" parent="."]

[node name="EnemySprite" type="Sprite2D" parent="."]
position = Vector2(8, 16)
texture = ExtResource("1_yk6b4")
hframes = 12
frame = 7
region_rect = Rect2(96, 0, 16, 16)

[node name="AnimationPlayer" type="AnimationPlayer" parent="EnemySprite"]
libraries = {
"": SubResource("AnimationLibrary_44ln4")
}
