[gd_scene load_steps=5 format=3 uid="uid://cds16chagmvb0"]

[ext_resource type="Script" path="res://Scripts/GameOver.gd" id="1"]
[ext_resource type="Texture2D" uid="uid://dfrgfuera35nn" path="res://Sprites/blackBackground.png" id="2_t82cd"]
[ext_resource type="PackedScene" uid="uid://b228qqvc1f8u5" path="res://GB_Screen.tscn" id="3_fkc7u"]

[sub_resource type="StyleBoxFlat" id="StyleBoxFlat_o0pwm"]
bg_color = Color(0, 0, 0, 1)
border_color = Color(0, 0, 0, 1)
corner_detail = 1
shadow_color = Color(0, 0, 0, 0)
anti_aliasing = false

[node name="Node" type="Node"]
script = ExtResource("1")

[node name="Background" type="Sprite2D" parent="."]
position = Vector2(-16, -11)
scale = Vector2(18.4375, 10.6875)
texture = ExtResource("2_t82cd")
centered = false

[node name="Label" type="Label" parent="."]
offset_left = 88.0
offset_top = 56.0
offset_right = 162.0
offset_bottom = 66.0
theme_override_colors/font_color = Color(1, 1, 1, 1)
theme_override_styles/normal = SubResource("StyleBoxFlat_o0pwm")
text = "GAME OVER"

[node name="Button" type="Button" parent="."]
offset_left = 88.0
offset_top = 112.0
offset_right = 160.0
offset_bottom = 128.0
text = "Restart"

[node name="ColorRect" parent="." instance=ExtResource("3_fkc7u")]

[connection signal="pressed" from="Button" to="." method="_on_Button_pressed"]
