[gd_scene load_steps=3 format=3 uid="uid://bnvixaikc263e"]

[ext_resource type="Shape2D" path="res://Shapes/WinButton.tres" id="1"]
[ext_resource type="FontVariation" uid="uid://dhgh2opr7coar" path="res://Fonts/pokemon_font_variation.tres" id="2"]

[node name="TouchBattleMenu" type="Node2D"]

[node name="TouchScreenButton" type="TouchScreenButton" parent="."]
shape = ExtResource("1")
action = "ui_cancel"

[node name="Label" type="Label" parent="TouchScreenButton"]
offset_right = 24.0
offset_bottom = 8.0
theme_override_fonts/font = ExtResource("2")
text = "Win"
